{
  "configVersion": 1,
  "timestamp": 1554925785868,
  "index": "/index.html",
  "assetGroups": [
    {
      "name": "app",
      "installMode": "prefetch",
      "updateMode": "prefetch",
      "urls": [
        "/es2015-polyfills.704cf093f76bd4660660.js",
        "/favicon.ico",
        "/index.html",
        "/main.9b540373b3c6bf82121d.js",
        "/polyfills.f2cec06d6277e8ebc0f5.js",
        "/runtime.a7110c4cef69ff346f07.js",
        "/styles.fd9eaeeed0ee3527a10d.css"
      ],
      "patterns": []
    },
    {
      "name": "assets",
      "installMode": "lazy",
      "updateMode": "prefetch",
      "urls": [
        "/assets/favicon.ico",
        "/assets/icons/icon-128x128.png",
        "/assets/icons/icon-144x144.png",
        "/assets/icons/icon-152x152.png",
        "/assets/icons/icon-192x192.png",
        "/assets/icons/icon-512x512.png",
        "/assets/icons/icon-72x72.png",
        "/assets/icons/icon-96x96.png",
        "/assets/logo-dark.png",
        "/assets/logo.png"
      ],
      "patterns": []
    }
  ],
  "dataGroups": [
    {
      "name": "main-api",
      "patterns": [
        "\\/api\\/.*"
      ],
      "strategy": "freshness",
      "maxSize": 200,
      "maxAge": 604800000,
      "timeoutMs": 10000,
      "version": 1
    }
  ],
  "hashTable": {
    "/assets/favicon.ico": "7ca6d7ce22ad54959b405e563005369c554dd097",
    "/assets/icons/icon-128x128.png": "ada6b81b03b8dd8e8b751fa411c9f33d42c6f0df",
    "/assets/icons/icon-144x144.png": "751c52343f1d4b828a179ba47c7fee5633b1769c",
    "/assets/icons/icon-152x152.png": "ca7856404112a30aadfa6ee457151bc8d56c3913",
    "/assets/icons/icon-192x192.png": "8f517214b7d116f78961d41a74d4dd5f892accc7",
    "/assets/icons/icon-512x512.png": "421c66c1829e64df49d93af4da6bbbf234eb2c9e",
    "/assets/icons/icon-72x72.png": "6f764233347bc477cc324868fad37222e8f74bf5",
    "/assets/icons/icon-96x96.png": "59734e03f2c93e6f4cb35189e758748dc1533eb5",
    "/assets/logo-dark.png": "d21c971122fe6666fd8d39ead96bc2b8ed1ea382",
    "/assets/logo.png": "4438f49a97e158cfa3c20a6273ddef42e2eca324",
    "/es2015-polyfills.704cf093f76bd4660660.js": "6c6a534691b3100dd4cb5c102f82eadf4001fd2d",
    "/favicon.ico": "84161b857f5c547e3699ddfbffc6d8d737542e01",
    "/index.html": "a2f3a38962e1e70be653b8a7694f1e5d31deadfd",
    "/main.9b540373b3c6bf82121d.js": "36d0c2d96846ac31a638750edfb6c033b72c5c4e",
    "/polyfills.f2cec06d6277e8ebc0f5.js": "ee72084b02e2d3b5bfb08c00764bb2c0929a65e9",
    "/runtime.a7110c4cef69ff346f07.js": "6e40fd9f2fbf53d075d9a457089fdf30699f8a40",
    "/styles.fd9eaeeed0ee3527a10d.css": "21ea5baebddb81f102998a4f3ec6e07003282a5e"
  },
  "navigationUrls": [
    {
      "positive": true,
      "regex": "^\\/.*$"
    },
    {
      "positive": false,
      "regex": "^\\/(?:.+\\/)?[^/]*\\.[^/]*$"
    },
    {
      "positive": false,
      "regex": "^\\/(?:.+\\/)?[^/]*__[^/]*$"
    },
    {
      "positive": false,
      "regex": "^\\/(?:.+\\/)?[^/]*__[^/]*\\/.*$"
    }
  ]
}